…
``` r
# TESTING WITH vancouver_trees DATASET
count_obs(vancouver_trees, 'neighbourhood_name') # group_vars is type chr
```

    ## # A tibble: 22 × 2
    ##    neighbourhood_name       num_obs
    ##    <chr>                      <int>
    ##  1 ARBUTUS-RIDGE               5169
    ##  2 DOWNTOWN                    5159
    ##  3 DUNBAR-SOUTHLANDS           9415
    ##  4 FAIRVIEW                    4002
    ##  5 GRANDVIEW-WOODLAND          6703
    ##  6 HASTINGS-SUNRISE           10547
    ##  7 KENSINGTON-CEDAR COTTAGE   11042
    ##  8 KERRISDALE                  6936
    ##  9 KILLARNEY                   6148
    ## 10 KITSILANO                   8115
    ## # ℹ 12 more rows

``` r
count_obs(vancouver_trees, 'date_planted') # group_vars is type date
```

    ## # A tibble: 3,995 × 2
    ##    date_planted num_obs
    ##    <date>         <int>
    ##  1 1989-10-27         2
    ##  2 1989-10-30         5
    ##  3 1989-10-31        16
    ##  4 1989-11-02        25
    ##  5 1989-11-03         4
    ##  6 1989-11-06         2
    ##  7 1989-11-07        37
    ##  8 1989-11-08        44
    ##  9 1989-11-09         5
    ## 10 1989-11-10        31
    ## # ℹ 3,985 more rows

``` r
count_obs(vancouver_trees, c('neighbourhood_name', 'species_name')) # group_vars are both type chr
```

    ## # A tibble: 3,056 × 3
    ##    neighbourhood_name species_name   num_obs
    ##    <chr>              <chr>            <int>
    ##  1 ARBUTUS-RIDGE      ABIES                2
    ##  2 ARBUTUS-RIDGE      ACERIFOLIA   X     103
    ##  3 ARBUTUS-RIDGE      ACUTISSIMA           5
    ##  4 ARBUTUS-RIDGE      ALNIFOLIA           16
    ##  5 ARBUTUS-RIDGE      AMERICANA          225
    ##  6 ARBUTUS-RIDGE      AQUIFOLIUM           3
    ##  7 ARBUTUS-RIDGE      ARIA                19
    ##  8 ARBUTUS-RIDGE      ARNOLDIANA X         4
    ##  9 ARBUTUS-RIDGE      AUCUPARIA           16
    ## 10 ARBUTUS-RIDGE      AVIUM               15
    ## # ℹ 3,046 more rows
…
``` r
# TESTING WITH gapminder DATASET
count_obs(gapminder, 'country') # group_vars is class fct
```

    ## # A tibble: 142 × 2
    ##    country     num_obs
    ##    <fct>         <int>
    ##  1 Afghanistan      12
    ##  2 Albania          12
    ##  3 Algeria          12
    ##  4 Angola           12
    ##  5 Argentina        12
    ##  6 Australia        12
    ##  7 Austria          12
    ##  8 Bahrain          12
    ##  9 Bangladesh       12
    ## 10 Belgium          12
    ## # ℹ 132 more rows

``` r
count_obs(gapminder, c('continent', 'country')) # group_vars are both class fct
```

    ## # A tibble: 142 × 3
    ##    continent country                  num_obs
    ##    <fct>     <fct>                      <int>
    ##  1 Africa    Algeria                       12
    ##  2 Africa    Angola                        12
    ##  3 Africa    Benin                         12
    ##  4 Africa    Botswana                      12
    ##  5 Africa    Burkina Faso                  12
    ##  6 Africa    Burundi                       12
    ##  7 Africa    Cameroon                      12
    ##  8 Africa    Central African Republic      12
    ##  9 Africa    Chad                          12
    ## 10 Africa    Comoros                       12
    ## # ℹ 132 more rows
…
